{
    "time_limit": "2023-03-30 23:59:59",
    "banner_list": [
        {
            "banner_type": 18,
            "target_id": 1,
            "asset_path": "assets\/image\/handover\/banner\/banner_01.png",
            "is_registered": true,
            "fixed_flag": false,
            "back_side": true,
            "banner_id": 1800001,
            "start_date": "2023-02-02 21:00:00",
            "end_date": "2023-03-30 23:59:59"
        },
        {
            "banner_type": 1,
            "target_id": 1739,
            "asset_path": "assets\/image\/secretbox\/icon\/s_ba_1739_1.png",
            "fixed_flag": false,
            "back_side": false,
            "banner_id": 101144,
            "start_date": "2013-04-15 00:00:00",
            "end_date": "2037-12-31 23:59:59",
            "add_unit_start_date": "1970-01-01 00:00:00"
        },
        {
            "banner_type": 1,
            "target_id": 1738,
            "asset_path": "assets\/image\/secretbox\/icon\/s_ba_1738_1.png",
            "fixed_flag": false,
            "back_side": false,
            "banner_id": 101143,
            "start_date": "2013-04-15 00:00:00",
            "end_date": "2037-12-31 23:59:59",
            "add_unit_start_date": "1970-01-01 00:00:00"
        },
        {
            "banner_type": 1,
            "target_id": 1737,
            "asset_path": "assets\/image\/secretbox\/icon\/s_ba_1737_1.png",
            "fixed_flag": false,
            "back_side": false,
            "banner_id": 101142,
            "start_date": "2013-04-15 00:00:00",
            "end_date": "2037-12-31 23:59:59",
            "add_unit_start_date": "1970-01-01 00:00:00"
        },
        {
            "banner_type": 1,
            "target_id": 1736,
            "asset_path": "assets\/image\/secretbox\/icon\/s_ba_1736_1.png",
            "fixed_flag": false,
            "back_side": false,
            "banner_id": 101141,
            "start_date": "2013-04-15 00:00:00",
            "end_date": "2037-12-31 23:59:59",
            "add_unit_start_date": "1970-01-01 00:00:00"
        },
        {
            "banner_type": 1,
            "target_id": 1735,
            "asset_path": "assets\/image\/secretbox\/icon\/s_ba_1735_1.png",
            "fixed_flag": false,
            "back_side": false,
            "banner_id": 101148,
            "start_date": "2013-04-15 00:00:00",
            "end_date": "2037-12-31 23:59:59",
            "add_unit_start_date": "2022-01-01 00:00:00"
        },
        {
            "banner_type": 1,
            "target_id": 1734,
            "asset_path": "assets\/image\/secretbox\/icon\/s_ba_1734_1.png",
            "fixed_flag": false,
            "back_side": false,
            "banner_id": 101147,
            "start_date": "2013-04-15 00:00:00",
            "end_date": "2037-12-31 23:59:59",
            "add_unit_start_date": "2022-01-01 00:00:00"
        },
        {
            "banner_type": 1,
            "target_id": 1733,
            "asset_path": "assets\/image\/secretbox\/icon\/s_ba_1733_1.png",
            "fixed_flag": false,
            "back_side": false,
            "banner_id": 101146,
            "start_date": "2013-04-15 00:00:00",
            "end_date": "2037-12-31 23:59:59",
            "add_unit_start_date": "2022-01-01 00:00:00"
        },
        {
            "banner_type": 1,
            "target_id": 1732,
            "asset_path": "assets\/image\/secretbox\/icon\/s_ba_1732_1.png",
            "fixed_flag": false,
            "back_side": false,
            "banner_id": 101145,
            "start_date": "2013-04-15 00:00:00",
            "end_date": "2037-12-31 23:59:59",
            "add_unit_start_date": "2022-01-01 00:00:00"
        },
        {
            "banner_type": 1,
            "target_id": 1257,
            "asset_path": "assets\/image\/secretbox\/icon\/s_ba_1257_1.png",
            "fixed_flag": false,
            "back_side": false,
            "banner_id": 100930,
            "start_date": "2013-04-15 00:00:00",
            "end_date": "2037-12-31 23:59:59",
            "add_unit_start_date": "1970-01-01 00:00:00"
        },
        {
            "banner_type": 1,
            "target_id": 1269,
            "asset_path": "assets\/image\/secretbox\/icon\/s_ba_1269_1.png",
            "fixed_flag": false,
            "back_side": false,
            "banner_id": 100942,
            "start_date": "2013-04-15 00:00:00",
            "end_date": "2037-12-31 23:59:59",
            "add_unit_start_date": "1970-01-01 00:00:00"
        },
        {
            "banner_type": 1,
            "target_id": 1249,
            "asset_path": "assets\/image\/secretbox\/icon\/s_ba_1249_1.png",
            "fixed_flag": false,
            "back_side": false,
            "banner_id": 100922,
            "start_date": "2013-04-15 00:00:00",
            "end_date": "2037-12-31 23:59:59",
            "add_unit_start_date": "1970-01-01 00:00:00"
        },
        {
            "banner_type": 1,
            "target_id": 1261,
            "asset_path": "assets\/image\/secretbox\/icon\/s_ba_1261_1.png",
            "fixed_flag": false,
            "back_side": false,
            "banner_id": 100934,
            "start_date": "2013-04-15 00:00:00",
            "end_date": "2037-12-31 23:59:59",
            "add_unit_start_date": "1970-01-01 00:00:00"
        },
        {
            "banner_type": 1,
            "target_id": 1247,
            "asset_path": "assets\/image\/secretbox\/icon\/s_ba_1247_1.png",
            "fixed_flag": false,
            "back_side": false,
            "banner_id": 100920,
            "start_date": "2013-04-15 00:00:00",
            "end_date": "2037-12-31 23:59:59",
            "add_unit_start_date": "1970-01-01 00:00:00"
        },
        {
            "banner_type": 1,
            "target_id": 1259,
            "asset_path": "assets\/image\/secretbox\/icon\/s_ba_1259_1.png",
            "fixed_flag": false,
            "back_side": false,
            "banner_id": 100932,
            "start_date": "2013-04-15 00:00:00",
            "end_date": "2037-12-31 23:59:59",
            "add_unit_start_date": "1970-01-01 00:00:00"
        },
        {
            "banner_type": 1,
            "target_id": 1163,
            "asset_path": "assets\/image\/secretbox\/icon\/s_ba_1163_1.png",
            "fixed_flag": false,
            "back_side": false,
            "banner_id": 100823,
            "start_date": "2013-04-15 00:00:00",
            "end_date": "2037-12-31 23:59:59",
            "add_unit_start_date": "1970-01-01 00:00:00"
        },
        {
            "banner_type": 1,
            "target_id": 1172,
            "asset_path": "assets\/image\/secretbox\/icon\/s_ba_1172_1.png",
            "fixed_flag": false,
            "back_side": false,
            "banner_id": 100831,
            "start_date": "2013-04-15 00:00:00",
            "end_date": "2037-12-31 23:59:59",
            "add_unit_start_date": "1970-01-01 00:00:00"
        },
        {
            "banner_type": 1,
            "target_id": 1167,
            "asset_path": "assets\/image\/secretbox\/icon\/s_ba_1167_1.png",
            "fixed_flag": false,
            "back_side": false,
            "banner_id": 100826,
            "start_date": "2013-04-15 00:00:00",
            "end_date": "2037-12-31 23:59:59",
            "add_unit_start_date": "1970-01-01 00:00:00"
        },
        {
            "banner_type": 1,
            "target_id": 1176,
            "asset_path": "assets\/image\/secretbox\/icon\/s_ba_1176_1.png",
            "fixed_flag": false,
            "back_side": false,
            "banner_id": 100834,
            "start_date": "2013-04-15 00:00:00",
            "end_date": "2037-12-31 23:59:59",
            "add_unit_start_date": "1970-01-01 00:00:00"
        },
        {
            "banner_type": 2,
            "target_id": 1,
            "asset_path": "assets\/image\/webview\/wv_ba_01.png",
            "webview_url": "\/webview.php\/static\/index?id=79",
            "fixed_flag": false,
            "back_side": true,
            "banner_id": 200001,
            "start_date": "2016-10-15 15:00:00",
            "end_date": "2037-12-31 23:59:59"
        }
    ]
}