{
    "background_info": [
        {
            "background_id": 2,
            "is_set": false,
            "insert_date": "2019-04-13 15:04:41"
        },
        {
            "background_id": 3,
            "is_set": false,
            "insert_date": "2019-07-22 21:53:37"
        },
        {
            "background_id": 4,
            "is_set": false,
            "insert_date": "2019-08-08 15:00:00"
        },
        {
            "background_id": 5,
            "is_set": false,
            "insert_date": "2019-09-05 10:58:03"
        },
        {
            "background_id": 6,
            "is_set": false,
            "insert_date": "2019-09-30 18:55:30"
        },
        {
            "background_id": 7,
            "is_set": false,
            "insert_date": "2019-10-02 23:26:40"
        },
        {
            "background_id": 8,
            "is_set": false,
            "insert_date": "2019-10-17 16:10:06"
        },
        {
            "background_id": 9,
            "is_set": false,
            "insert_date": "2019-11-02 01:41:44"
        },
        {
            "background_id": 10,
            "is_set": false,
            "insert_date": "2019-11-02 11:37:14"
        },
        {
            "background_id": 11,
            "is_set": false,
            "insert_date": "2019-11-02 23:45:24"
        },
        {
            "background_id": 12,
            "is_set": false,
            "insert_date": "2019-11-03 22:12:55"
        },
        {
            "background_id": 13,
            "is_set": false,
            "insert_date": "2019-11-16 00:10:22"
        },
        {
            "background_id": 14,
            "is_set": false,
            "insert_date": "2019-11-16 00:48:42"
        },
        {
            "background_id": 15,
            "is_set": false,
            "insert_date": "2019-11-16 10:49:41"
        },
        {
            "background_id": 16,
            "is_set": false,
            "insert_date": "2019-11-16 15:13:13"
        },
        {
            "background_id": 17,
            "is_set": false,
            "insert_date": "2019-09-01 13:50:01"
        },
        {
            "background_id": 19,
            "is_set": false,
            "insert_date": "2019-11-16 15:40:17"
        },
        {
            "background_id": 21,
            "is_set": false,
            "insert_date": "2019-10-26 02:50:34"
        },
        {
            "background_id": 23,
            "is_set": false,
            "insert_date": "2019-09-02 00:36:15"
        },
        {
            "background_id": 27,
            "is_set": false,
            "insert_date": "2019-09-02 08:25:09"
        },
        {
            "background_id": 29,
            "is_set": false,
            "insert_date": "2019-09-02 14:27:52"
        },
        {
            "background_id": 37,
            "is_set": false,
            "insert_date": "2019-09-05 10:49:22"
        },
        {
            "background_id": 42,
            "is_set": false,
            "insert_date": "2019-09-06 11:53:23"
        },
        {
            "background_id": 55,
            "is_set": false,
            "insert_date": "2019-09-07 06:22:00"
        },
        {
            "background_id": 59,
            "is_set": false,
            "insert_date": "2019-07-21 16:03:01"
        },
        {
            "background_id": 64,
            "is_set": false,
            "insert_date": "2018-05-01 19:38:58"
        },
        {
            "background_id": 71,
            "is_set": false,
            "insert_date": "2019-12-28 00:12:38"
        },
        {
            "background_id": 85,
            "is_set": false,
            "insert_date": "2019-09-07 21:38:30"
        },
        {
            "background_id": 87,
            "is_set": false,
            "insert_date": "2019-09-08 15:30:58"
        },
        {
            "background_id": 95,
            "is_set": false,
            "insert_date": "2019-09-09 12:31:42"
        },
        {
            "background_id": 96,
            "is_set": false,
            "insert_date": "2019-12-22 21:25:38"
        },
        {
            "background_id": 98,
            "is_set": false,
            "insert_date": "2019-12-22 21:25:38"
        },
        {
            "background_id": 100,
            "is_set": false,
            "insert_date": "2019-07-22 21:56:57"
        },
        {
            "background_id": 101,
            "is_set": false,
            "insert_date": "2019-07-24 18:49:44"
        },
        {
            "background_id": 102,
            "is_set": false,
            "insert_date": "2019-07-28 21:59:10"
        },
        {
            "background_id": 103,
            "is_set": false,
            "insert_date": "2019-08-03 01:40:53"
        },
        {
            "background_id": 104,
            "is_set": false,
            "insert_date": "2019-08-04 00:59:37"
        },
        {
            "background_id": 105,
            "is_set": false,
            "insert_date": "2019-08-04 22:18:55"
        },
        {
            "background_id": 106,
            "is_set": false,
            "insert_date": "2019-08-05 23:58:56"
        },
        {
            "background_id": 107,
            "is_set": false,
            "insert_date": "2019-09-13 00:42:24"
        },
        {
            "background_id": 114,
            "is_set": false,
            "insert_date": "2019-09-14 23:46:04"
        },
        {
            "background_id": 121,
            "is_set": false,
            "insert_date": "2019-09-05 10:55:31"
        },
        {
            "background_id": 122,
            "is_set": false,
            "insert_date": "2019-09-01 01:33:32"
        },
        {
            "background_id": 127,
            "is_set": false,
            "insert_date": "2019-09-30 17:57:18"
        },
        {
            "background_id": 131,
            "is_set": false,
            "insert_date": "2019-11-02 01:36:40"
        },
        {
            "background_id": 141,
            "is_set": false,
            "insert_date": "2019-12-20 16:22:56"
        },
        {
            "background_id": 142,
            "is_set": false,
            "insert_date": "2020-01-01 12:28:44"
        },
        {
            "background_id": 143,
            "is_set": false,
            "insert_date": "2020-02-14 01:05:21"
        },
        {
            "background_id": 144,
            "is_set": false,
            "insert_date": "2020-02-09 23:18:19"
        },
        {
            "background_id": 145,
            "is_set": false,
            "insert_date": "2020-02-11 00:39:41"
        },
        {
            "background_id": 146,
            "is_set": false,
            "insert_date": "2020-02-14 15:41:46"
        },
        {
            "background_id": 147,
            "is_set": false,
            "insert_date": "2020-02-14 15:14:46"
        },
        {
            "background_id": 148,
            "is_set": false,
            "insert_date": "2020-02-09 23:18:19"
        },
        {
            "background_id": 149,
            "is_set": true,
            "insert_date": "2020-02-07 00:10:04"
        },
        {
            "background_id": 150,
            "is_set": false,
            "insert_date": "2020-02-14 15:05:15"
        },
        {
            "background_id": 151,
            "is_set": false,
            "insert_date": "2020-02-09 23:18:19"
        },
        {
            "background_id": 152,
            "is_set": false,
            "insert_date": "2020-02-14 01:05:21"
        },
        {
            "background_id": 153,
            "is_set": false,
            "insert_date": "2020-02-15 00:40:26"
        },
        {
            "background_id": 154,
            "is_set": false,
            "insert_date": "2020-02-15 00:40:26"
        },
        {
            "background_id": 155,
            "is_set": false,
            "insert_date": "2020-02-14 11:30:26"
        },
        {
            "background_id": 156,
            "is_set": false,
            "insert_date": "2020-02-14 01:05:21"
        },
        {
            "background_id": 157,
            "is_set": false,
            "insert_date": "2020-02-14 15:05:15"
        },
        {
            "background_id": 158,
            "is_set": false,
            "insert_date": "2020-02-12 20:12:37"
        },
        {
            "background_id": 159,
            "is_set": false,
            "insert_date": "2020-02-14 15:05:15"
        },
        {
            "background_id": 160,
            "is_set": false,
            "insert_date": "2020-02-09 23:18:19"
        },
        {
            "background_id": 161,
            "is_set": false,
            "insert_date": "2020-04-01 23:15:52"
        },
        {
            "background_id": 1,
            "is_set": false,
            "insert_date": "2013-04-15 00:00:00"
        }
    ]
}